统计学24春 - Data Manipulation with dplyr
…
    Author

             li zongzhang 

    Published

      April 7, 2024

本节使用数据集starwars。

#加载包dplyr
library(dplyr)
starwars

# A tibble: 87 × 14
   name     height  mass hair_color skin_color eye_color birth_year sex   gender
   <chr>     <int> <dbl> <chr>      <chr>      <chr>          <dbl> <chr> <chr> 
 1 Luke Sk…    172    77 blond      fair       blue            19   male  mascu…
 2 C-3PO       167    75 <NA>       gold       yellow         112   none  mascu…
 3 R2-D2        96    32 <NA>       white, bl… red             33   none  mascu…
 4 Darth V…    202   136 none       white      yellow          41.9 male  mascu…
 5 Leia Or…    150    49 brown      light      brown           19   fema… femin…
 6 Owen La…    178   120 brown, gr… light      blue            52   male  mascu…
 7 Beru Wh…    165    75 brown      light      blue            47   fema… femin…
 8 R5-D4        97    32 <NA>       white, red red             NA   none  mascu…
 9 Biggs D…    183    84 black      light      brown           24   male  mascu…
10 Obi-Wan…    182    77 auburn, w… fair       blue-gray       57   male  mascu…
# ℹ 77 more rows
# ℹ 5 more variables: homeworld <chr>, species <chr>, films <list>,
#   vehicles <list>, starships <list>
…
?select_helpers

#names()列出数据框所有变量名
names(starwars)

 [1] "name"       "height"     "mass"       "hair_color" "skin_color"
 [6] "eye_color"  "birth_year" "sex"        "gender"     "homeworld" 
[11] "species"    "films"      "vehicles"   "starships" 

#选择需要的变量，创建新的数据框
starwars_selected <- starwars %>% select(
  name, height, mass, sex, species, films)
starwars_selected

# A tibble: 87 × 6
   name               height  mass sex    species films    
   <chr>               <int> <dbl> <chr>  <chr>   <list>   
 1 Luke Skywalker        172    77 male   Human   <chr [5]>
 2 C-3PO                 167    75 none   Droid   <chr [6]>
 3 R2-D2                  96    32 none   Droid   <chr [7]>
 4 Darth Vader           202   136 male   Human   <chr [4]>
 5 Leia Organa           150    49 female Human   <chr [5]>
 6 Owen Lars             178   120 male   Human   <chr [3]>
 7 Beru Whitesun Lars    165    75 female Human   <chr [3]>
 8 R5-D4                  97    32 none   Droid   <chr [1]>
 9 Biggs Darklighter     183    84 male   Human   <chr [1]>
10 Obi-Wan Kenobi        182    77 male   Human   <chr [6]>
# ℹ 77 more rows

#选择一个范围，变量名1：变量2
data1 <- starwars %>% 
       select(name:mass)
data1

# A tibble: 87 × 3
   name               height  mass
   <chr>               <int> <dbl>
 1 Luke Skywalker        172    77
 2 C-3PO                 167    75
 3 R2-D2                  96    32
 4 Darth Vader           202   136
 5 Leia Organa           150    49
 6 Owen Lars             178   120
 7 Beru Whitesun Lars    165    75
 8 R5-D4                  97    32
 9 Biggs Darklighter     183    84
10 Obi-Wan Kenobi        182    77
# ℹ 77 more rows

#设置条件 contains()
data2 <- starwars %>% 
       select(name, species, contains("color"))
data2

# A tibble: 87 × 5
   name               species hair_color    skin_color  eye_color
   <chr>              <chr>   <chr>         <chr>       <chr>    
 1 Luke Skywalker     Human   blond         fair        blue     
 2 C-3PO              Droid   <NA>          gold        yellow   
 3 R2-D2              Droid   <NA>          white, blue red      
 4 Darth Vader        Human   none          white       yellow   
 5 Leia Organa        Human   brown         light       brown    
 6 Owen Lars          Human   brown, grey   light       blue     
 7 Beru Whitesun Lars Human   brown         light       blue     
 8 R5-D4              Droid   <NA>          white, red  red      
 9 Biggs Darklighter  Human   black         light       brown    
10 Obi-Wan Kenobi     Human   auburn, white fair        blue-gray
# ℹ 77 more rows

mutate()

在数据集中追加新的变量。

#生成新变量
starwars_selected %>% 
  mutate(BMI = mass/((height/100)^2)) %>% 
  arrange(desc(BMI))

# A tibble: 87 × 7
   name                  height  mass sex            species        films    BMI
   <chr>                  <int> <dbl> <chr>          <chr>          <list> <dbl>
 1 Jabba Desilijic Tiure    175  1358 hermaphroditic Hutt           <chr>  443. 
 2 Dud Bolt                  94    45 male           Vulptereen     <chr>   50.9
 3 Yoda                      66    17 male           Yoda's species <chr>   39.0
 4 Owen Lars                178   120 male           Human          <chr>   37.9
 5 IG-88                    200   140 none           Droid          <chr>   35  
 6 R2-D2                     96    32 none           Droid          <chr>   34.7
 7 Grievous                 216   159 male           Kaleesh        <chr>   34.1
 8 R5-D4                     97    32 none           Droid          <chr>   34.0
 9 Jek Tono Porkins         180   110 <NA>           <NA>           <chr>   34.0
10 Darth Vader              202   136 male           Human          <chr>   33.3
# ℹ 77 more rows

starwars_selected

# A tibble: 87 × 6
   name               height  mass sex    species films    
   <chr>               <int> <dbl> <chr>  <chr>   <list>   
 1 Luke Skywalker        172    77 male   Human   <chr [5]>
 2 C-3PO                 167    75 none   Droid   <chr [6]>
 3 R2-D2                  96    32 none   Droid   <chr [7]>
 4 Darth Vader           202   136 male   Human   <chr [4]>
 5 Leia Organa           150    49 female Human   <chr [5]>
 6 Owen Lars             178   120 male   Human   <chr [3]>
 7 Beru Whitesun Lars    165    75 female Human   <chr [3]>
 8 R5-D4                  97    32 none   Droid   <chr [1]>
 9 Biggs Darklighter     183    84 male   Human   <chr [1]>
10 Obi-Wan Kenobi        182    77 male   Human   <chr [6]>
# ℹ 77 more rows

starwars_selected %>% 
  mutate(wt_rank = min_rank(desc(mass))) %>% 
  arrange((wt_rank)) 

# A tibble: 87 × 7
   name                  height  mass sex            species    films  wt_rank
   <chr>                  <int> <dbl> <chr>          <chr>      <list>   <int>
 1 Jabba Desilijic Tiure    175  1358 hermaphroditic Hutt       <chr>        1
 2 Grievous                 216   159 male           Kaleesh    <chr>        2
 3 IG-88                    200   140 none           Droid      <chr>        3
 4 Darth Vader              202   136 male           Human      <chr>        4
 5 Tarfful                  234   136 male           Wookiee    <chr>        4
 6 Owen Lars                178   120 male           Human      <chr>        6
 7 Bossk                    190   113 male           Trandoshan <chr>        7
 8 Chewbacca                228   112 male           Wookiee    <chr>        8
 9 Jek Tono Porkins         180   110 <NA>           <NA>       <chr>        9
10 Dexter Jettster          198   102 male           Besalisk   <chr>       10
# ℹ 77 more rows

#overwrite the variable
starwars_selected %>% 
  mutate(height = height/100) %>% 
  arrange(desc(height))

# A tibble: 87 × 6
   name         height  mass sex    species  films    
   <chr>         <dbl> <dbl> <chr>  <chr>    <list>   
 1 Yarael Poof    2.64    NA male   Quermian <chr [1]>
 2 Tarfful        2.34   136 male   Wookiee  <chr [1]>
 3 Lama Su        2.29    88 male   Kaminoan <chr [1]>
 4 Chewbacca      2.28   112 male   Wookiee  <chr [5]>
 5 Roos Tarpals   2.24    82 male   Gungan   <chr [1]>
 6 Grievous       2.16   159 male   Kaleesh  <chr [1]>
 7 Taun We        2.13    NA female Kaminoan <chr [1]>
 8 Rugor Nass     2.06    NA male   Gungan   <chr [1]>
 9 Tion Medon     2.06    80 male   Pau'an   <chr [1]>
10 Darth Vader    2.02   136 male   Human    <chr [4]>
# ℹ 77 more rows

#everything() selects all variable.
starwars %>%
  mutate(height_m = height / 100) %>%
  select(height_m, height, everything())

# A tibble: 87 × 15
   height_m height name    mass hair_color skin_color eye_color birth_year sex  
      <dbl>  <int> <chr>  <dbl> <chr>      <chr>      <chr>          <dbl> <chr>
 1     1.72    172 Luke …    77 blond      fair       blue            19   male 
 2     1.67    167 C-3PO     75 <NA>       gold       yellow         112   none 
 3     0.96     96 R2-D2     32 <NA>       white, bl… red             33   none 
 4     2.02    202 Darth…   136 none       white      yellow          41.9 male 
 5     1.5     150 Leia …    49 brown      light      brown           19   fema…
 6     1.78    178 Owen …   120 brown, gr… light      blue            52   male 
 7     1.65    165 Beru …    75 brown      light      blue            47   fema…
 8     0.97     97 R5-D4     32 <NA>       white, red red             NA   none 
 9     1.83    183 Biggs…    84 black      light      brown           24   male 
10     1.82    182 Obi-W…    77 auburn, w… fair       blue-gray       57   male 
# ℹ 77 more rows
# ℹ 6 more variables: gender <chr>, homeworld <chr>, species <chr>,
#   films <list>, vehicles <list>, starships <list>

rename()

#重命名变量，rename(新名=旧名)
starwars_selected %>% 
  rename(weight = mass)

# A tibble: 87 × 6
   name               height weight sex    species films    
   <chr>               <int>  <dbl> <chr>  <chr>   <list>   
 1 Luke Skywalker        172     77 male   Human   <chr [5]>
 2 C-3PO                 167     75 none   Droid   <chr [6]>
 3 R2-D2                  96     32 none   Droid   <chr [7]>
 4 Darth Vader           202    136 male   Human   <chr [4]>
 5 Leia Organa           150     49 female Human   <chr [5]>
 6 Owen Lars             178    120 male   Human   <chr [3]>
 7 Beru Whitesun Lars    165     75 female Human   <chr [3]>
 8 R5-D4                  97     32 none   Droid   <chr [1]>
 9 Biggs Darklighter     183     84 male   Human   <chr [1]>
10 Obi-Wan Kenobi        182     77 male   Human   <chr [6]>
# ℹ 77 more rows

#在select 的时候重命名
data3 <- starwars %>% 
  select(name, height, weight = mass)
data3

# A tibble: 87 × 3
   name               height weight
   <chr>               <int>  <dbl>
 1 Luke Skywalker        172     77
 2 C-3PO                 167     75
 3 R2-D2                  96     32
 4 Darth Vader           202    136
 5 Leia Organa           150     49
 6 Owen Lars             178    120
 7 Beru Whitesun Lars    165     75
 8 R5-D4                  97     32
 9 Biggs Darklighter     183     84
10 Obi-Wan Kenobi        182     77
# ℹ 77 more rows

transmute()

transmute()是select()和mutate()的结合。

Transmute is like a combination of select and mutate: you are getting back just a subset of the columns, but you are transforming and changing them at the same time.

data4 <- starwars %>% 
  filter(height != "NA") %>% 
  transmute(name, height, mass, bmi = mass/((height/100)^2))
data4

# A tibble: 81 × 4
   name               height  mass   bmi
   <chr>               <int> <dbl> <dbl>
 1 Luke Skywalker        172    77  26.0
 2 C-3PO                 167    75  26.9
 3 R2-D2                  96    32  34.7
 4 Darth Vader           202   136  33.3
 5 Leia Organa           150    49  21.8
 6 Owen Lars             178   120  37.9
 7 Beru Whitesun Lars    165    75  27.5
 8 R5-D4                  97    32  34.0
 9 Biggs Darklighter     183    84  25.1
10 Obi-Wan Kenobi        182    77  23.2
# ℹ 71 more rows

relocate()

调整列的排列顺序。

starwars %>% relocate(sex:homeworld, .before = height)

# A tibble: 87 × 14
   name      sex   gender homeworld height  mass hair_color skin_color eye_color
   <chr>     <chr> <chr>  <chr>      <int> <dbl> <chr>      <chr>      <chr>    
 1 Luke Sky… male  mascu… Tatooine     172    77 blond      fair       blue     
 2 C-3PO     none  mascu… Tatooine     167    75 <NA>       gold       yellow   
 3 R2-D2     none  mascu… Naboo         96    32 <NA>       white, bl… red      
 4 Darth Va… male  mascu… Tatooine     202   136 none       white      yellow   
 5 Leia Org… fema… femin… Alderaan     150    49 brown      light      brown    
 6 Owen Lars male  mascu… Tatooine     178   120 brown, gr… light      blue     
 7 Beru Whi… fema… femin… Tatooine     165    75 brown      light      blue     
 8 R5-D4     none  mascu… Tatooine      97    32 <NA>       white, red red      
 9 Biggs Da… male  mascu… Tatooine     183    84 black      light      brown    
10 Obi-Wan … male  mascu… Stewjon      182    77 auburn, w… fair       blue-gray
# ℹ 77 more rows
# ℹ 5 more variables: birth_year <dbl>, species <chr>, films <list>,
#   vehicles <list>, starships <list>

starwars

# A tibble: 87 × 14
   name     height  mass hair_color skin_color eye_color birth_year sex   gender
   <chr>     <int> <dbl> <chr>      <chr>      <chr>          <dbl> <chr> <chr> 
 1 Luke Sk…    172    77 blond      fair       blue            19   male  mascu…
 2 C-3PO       167    75 <NA>       gold       yellow         112   none  mascu…
 3 R2-D2        96    32 <NA>       white, bl… red             33   none  mascu…
 4 Darth V…    202   136 none       white      yellow          41.9 male  mascu…
 5 Leia Or…    150    49 brown      light      brown           19   fema… femin…
 6 Owen La…    178   120 brown, gr… light      blue            52   male  mascu…
 7 Beru Wh…    165    75 brown      light      blue            47   fema… femin…
 8 R5-D4        97    32 <NA>       white, red red             NA   none  mascu…
 9 Biggs D…    183    84 black      light      brown           24   male  mascu…
10 Obi-Wan…    182    77 auburn, w… fair       blue-gray       57   male  mascu…
# ℹ 77 more rows
# ℹ 5 more variables: homeworld <chr>, species <chr>, films <list>,
#   vehicles <list>, starships <list>

starwars %>% 
  select(name, species, everything())

# A tibble: 87 × 14
   name    species height  mass hair_color skin_color eye_color birth_year sex  
   <chr>   <chr>    <int> <dbl> <chr>      <chr>      <chr>          <dbl> <chr>
 1 Luke S… Human      172    77 blond      fair       blue            19   male 
 2 C-3PO   Droid      167    75 <NA>       gold       yellow         112   none 
 3 R2-D2   Droid       96    32 <NA>       white, bl… red             33   none 
 4 Darth … Human      202   136 none       white      yellow          41.9 male 
 5 Leia O… Human      150    49 brown      light      brown           19   fema…
 6 Owen L… Human      178   120 brown, gr… light      blue            52   male 
 7 Beru W… Human      165    75 brown      light      blue            47   fema…
 8 R5-D4   Droid       97    32 <NA>       white, red red             NA   none 
 9 Biggs … Human      183    84 black      light      brown           24   male 
10 Obi-Wa… Human      182    77 auburn, w… fair       blue-gray       57   male 
# ℹ 77 more rows
# ℹ 5 more variables: gender <chr>, homeworld <chr>, films <list>,
#   vehicles <list>, starships <list>

starwars

# A tibble: 87 × 14
   name     height  mass hair_color skin_color eye_color birth_year sex   gender
   <chr>     <int> <dbl> <chr>      <chr>      <chr>          <dbl> <chr> <chr> 
 1 Luke Sk…    172    77 blond      fair       blue            19   male  mascu…
 2 C-3PO       167    75 <NA>       gold       yellow         112   none  mascu…
 3 R2-D2        96    32 <NA>       white, bl… red             33   none  mascu…
 4 Darth V…    202   136 none       white      yellow          41.9 male  mascu…
 5 Leia Or…    150    49 brown      light      brown           19   fema… femin…
 6 Owen La…    178   120 brown, gr… light      blue            52   male  mascu…
 7 Beru Wh…    165    75 brown      light      blue            47   fema… femin…
 8 R5-D4        97    32 <NA>       white, red red             NA   none  mascu…
 9 Biggs D…    183    84 black      light      brown           24   male  mascu…
10 Obi-Wan…    182    77 auburn, w… fair       blue-gray       57   male  mascu…
# ℹ 77 more rows
# ℹ 5 more variables: homeworld <chr>, species <chr>, films <list>,
#   vehicles <list>, starships <list>

if_else()

对变量值进行条件转换。

#加载包tidyr，drop_na()属于包tidyr
library(tidyr)
size_of_weight <- starwars_selected %>% 
  drop_na(mass) %>% 
  mutate(weight_size = if_else(mass >100, 
                               "large",
                               "small"))
size_of_weight

# A tibble: 59 × 7
   name               height  mass sex    species films     weight_size
   <chr>               <int> <dbl> <chr>  <chr>   <list>    <chr>      
 1 Luke Skywalker        172    77 male   Human   <chr [5]> small      
 2 C-3PO                 167    75 none   Droid   <chr [6]> small      
 3 R2-D2                  96    32 none   Droid   <chr [7]> small      
 4 Darth Vader           202   136 male   Human   <chr [4]> large      
 5 Leia Organa           150    49 female Human   <chr [5]> small      
 6 Owen Lars             178   120 male   Human   <chr [3]> large      
 7 Beru Whitesun Lars    165    75 female Human   <chr [3]> small      
 8 R5-D4                  97    32 none   Droid   <chr [1]> small      
 9 Biggs Darklighter     183    84 male   Human   <chr [1]> small      
10 Obi-Wan Kenobi        182    77 male   Human   <chr [6]> small      
# ℹ 49 more rows

recode()

对变量值进行重新编码。

# overwrite the original variable.
size_of_weight %>% 
  mutate(weight_size = recode(weight_size,
                              "large" =1,
                              "small" =2))

# A tibble: 59 × 7
   name               height  mass sex    species films     weight_size
   <chr>               <int> <dbl> <chr>  <chr>   <list>          <dbl>
 1 Luke Skywalker        172    77 male   Human   <chr [5]>           2
 2 C-3PO                 167    75 none   Droid   <chr [6]>           2
 3 R2-D2                  96    32 none   Droid   <chr [7]>           2
 4 Darth Vader           202   136 male   Human   <chr [4]>           1
 5 Leia Organa           150    49 female Human   <chr [5]>           2
 6 Owen Lars             178   120 male   Human   <chr [3]>           1
 7 Beru Whitesun Lars    165    75 female Human   <chr [3]>           2
 8 R5-D4                  97    32 none   Droid   <chr [1]>           2
 9 Biggs Darklighter     183    84 male   Human   <chr [1]>           2
10 Obi-Wan Kenobi        182    77 male   Human   <chr [6]>           2
# ℹ 49 more rows

size_of_weight

# A tibble: 59 × 7
   name               height  mass sex    species films     weight_size
   <chr>               <int> <dbl> <chr>  <chr>   <list>    <chr>      
 1 Luke Skywalker        172    77 male   Human   <chr [5]> small      
 2 C-3PO                 167    75 none   Droid   <chr [6]> small      
 3 R2-D2                  96    32 none   Droid   <chr [7]> small      
 4 Darth Vader           202   136 male   Human   <chr [4]> large      
 5 Leia Organa           150    49 female Human   <chr [5]> small      
 6 Owen Lars             178   120 male   Human   <chr [3]> large      
 7 Beru Whitesun Lars    165    75 female Human   <chr [3]> small      
 8 R5-D4                  97    32 none   Droid   <chr [1]> small      
 9 Biggs Darklighter     183    84 male   Human   <chr [1]> small      
10 Obi-Wan Kenobi        182    77 male   Human   <chr [6]> small      
# ℹ 49 more rows
…
行的管理Rows

arrange()

将个案按某个变量排序。

#升序
starwars_selected %>% arrange(height)

# A tibble: 87 × 6
   name                  height  mass sex   species        films    
   <chr>                  <int> <dbl> <chr> <chr>          <list>   
 1 Yoda                      66    17 male  Yoda's species <chr [5]>
 2 Ratts Tyerel              79    15 male  Aleena         <chr [1]>
 3 Wicket Systri Warrick     88    20 male  Ewok           <chr [1]>
 4 Dud Bolt                  94    45 male  Vulptereen     <chr [1]>
 5 R2-D2                     96    32 none  Droid          <chr [7]>
 6 R4-P17                    96    NA none  Droid          <chr [2]>
 7 R5-D4                     97    32 none  Droid          <chr [1]>
 8 Sebulba                  112    40 male  Dug            <chr [1]>
 9 Gasgano                  122    NA male  Xexto          <chr [1]>
10 Watto                    137    NA male  Toydarian      <chr [2]>
# ℹ 77 more rows
…
